Actividad 2 Métodos y Simulación Estadística
…
Realiza las siguientes actividades:

a. Simulación de estimadores:

Genera 100 muestras de tamaño n=10 de una distribución Gamma con
parámetros α=3 y σ=2

Para cada muestra, calcula los estimadores correspondientes.
Luego, grafica los resultados utilizando una curva de densidad o un
histograma de densidades para cada estimador.

## # A tibble: 100 × 4
##    `Estimador 1` `Estimador 2` `Estimador 3` `Estimador 4`
##            <dbl>         <dbl>         <dbl>         <dbl>
##  1          4.24          5.13         1.01           3.86
##  2          6.02          6.28         1.81           5.47
##  3          5.08          3.63         0.936          4.62
##  4          8.74         10.9          4.04           7.94
##  5          6.33          6.55         2.03           5.76
##  6          6.59          7.16         2.25           5.99
##  7          5.67          6.35         1.85           5.16
##  8          8.72         11.9          1.52           7.93
##  9          4.47          5.38         2.24           4.06
## 10          7.09          6.66         0.242          6.44
## # ℹ 90 more rows
…
